{
    "usesTypeScript": true,
    "usesCssModule": false,
    "cssPreprocessor": "scss",
    "testLibrary": "Testing Library",
    "component": {
        "default": {
            "path": "src/components",
            "withLazy": false,
            "withStory": false,
            "withStyle": false,
            "withTest": true
        },
        "page": {
            "path": "src/pages",
            "withLazy": false,
            "withStory": false,
            "withStyle": false,
            "withTest": true
          }
    }
}